<svg width="1523" height="1522" viewBox="0 0 1523 1522" fill="none" xmlns="http://www.w3.org/2000/svg">
<path d="M1523 0H0V882V1180L616 1522L1523 1038V0Z" fill="url(#paint0_linear)"/>
<path d="M1523 0H0V882V1180L616 1522L1523 1038V0Z" fill="url(#paint1_radial)"/>
<defs>
<linearGradient id="paint0_linear" x1="-0.0049935" y1="734.205" x2="1505.79" y2="429.099" gradientUnits="userSpaceOnUse">
<stop stop-color="#0163A9"/>
<stop offset="1" stop-color="#45A1DE"/>
</linearGradient>
<radialGradient id="paint1_radial" cx="0" cy="0" r="1" gradientUnits="userSpaceOnUse" gradientTransform="translate(761 777.749) rotate(90) scale(643.684 1493.45)">
<stop stop-color="white" stop-opacity="0.25"/>
<stop offset="1" stop-color="white" stop-opacity="0"/>
</radialGradient>
</defs>
</svg>
