<svg width="287" height="60" viewBox="0 0 287 60" fill="none" xmlns="http://www.w3.org/2000/svg">
<g clip-path="url(#clip0)">
<path d="M36.2 35.0499C34.4 42.45 32.3 45.7 27.75 48.15C24.35 50 19.9 50.9 14.45 50.9C9.4 50.9 5.35 50.25 0 48.45L3.05 35.8499C5.95 36.4499 7.05 36.5999 8.95 36.5999C13.4 36.5999 15.45 35.5 16.8 32.45C17.6 30.55 19.15 24.15 24.65 0.699951H44.4L36.2 35.0499Z" fill="white"/>
<path d="M59.95 34.35C59.9 34.8 59.9 35.25 59.9 35.6C59.9 38.95 62.1999 40.1 68.7 40.1C72.75 40.1 77.75 39.45 85 37.8L80.35 48.75C72.95 50.8 67.2 51.65 60.5 51.65C47.9 51.65 41.95 47 41.95 37.15C41.95 27.95 45.4999 18 50.5999 12.9C54.6 8.84998 60.9 6.84998 69.75 6.84998C76.25 6.84998 80.55 7.59998 83.75 9.19998C87.5 11.1 89.5 14.8 89.5 19.55C89.5 24 88.75 27.4 86.4 34.35H59.95ZM74.35 24.8C74.5 23.9 74.55 23.4 74.55 22.8C74.55 20.05 72.7 18.65 69.15 18.65C65.1 18.65 62.25 20.95 61.45 24.8H74.35Z" fill="white"/>
<path d="M119.15 8.44999H132L128.6 22.45H115.8L113.45 32.15C112.85 34.6 112.65 36.05 112.65 36.95C112.65 38.95 114.05 39.9 117.15 39.9C119.3 39.9 120.9 39.75 123.5 39.25L121 49.4C116.4 50.3 110.2 50.9 104.95 50.9C96.4499 50.9 92.7499 48.6 92.7499 43.45C92.7499 42.05 92.8999 40.55 93.2499 39L96.9499 22.5H91.3999L93.5499 13.45C101.6 7.69999 104.6 5.29999 110.25 0.0499878H121.2L119.15 8.44999Z" fill="white"/>
<path d="M166.5 0.75C173.95 0.75 177.25 1.2 179.8 2.55C182.85 4.05 184.75 7.65 184.75 11.8C184.75 20.6 179.85 29.55 172.9 33.5C168.6 35.85 165.15 36.45 154.6 36.45H149.7L146.45 50.15H126.6L138.5 0.75H166.5ZM152.6 24.85H153.7C158.2 24.85 160.35 24.5 161.75 23.35C163.6 21.95 164.8 19.45 164.8 17C164.8 14.2 163.25 13.5 157.05 13.5H155.25L152.6 24.85Z" fill="white"/>
<path d="M226.95 50.1H208.25C208.4 48.6 209.45 44.9 210.6 41.65H210.25C206.75 48.45 202.85 50.75 194.85 50.75C186.25 50.75 181.85 46.45 181.85 38.1C181.85 31.45 184.2 22.2 187.35 16.65C191.1 9.74999 196.4 6.79999 204.65 6.79999C212.65 6.79999 216.1 9.59999 216.1 16.25V17.3H216.45L217.35 12.4C217.7 10.2 217.8 9.74999 218.25 8.39999H236.95L226.95 50.1ZM201.1 33.45C201.1 36.2 202.75 37.75 205.7 37.75C208.5 37.75 210.65 36.35 212 33.6C213.1 31.3 213.9 28.2 213.9 26.2C213.9 23.7 212.2 22.35 209 22.35C204.4 22.35 201.1 26.85 201.1 33.45Z" fill="white"/>
<path d="M264.55 47.1999C260.35 54.75 257.9 57.1999 253 58.7499C250.5 59.4999 247.5 59.8499 243.25 59.8499C243.25 59.8499 240.95 59.8499 236.35 59.7999H233.55L235.35 48.6499C246.1 48.7 246.5 48.6999 247.65 48.3499C243.95 46.9999 242.6 44.5999 242.15 38.7999L239.55 8.44995H257.9L258.1 19.2C258.05 23.65 257.95 24.7 257.8 26.65C257.65 28.15 257.65 28.2999 256.75 33.8499H257.2C257.65 31.3499 260.1 24.6 262.55 19.2L267.8 8.44995H286.15L264.55 47.1999Z" fill="white"/>
</g>
<defs>
<clipPath id="clip0">
<rect width="286.15" height="59.85" fill="white"/>
</clipPath>
</defs>
</svg>
