<svg width="113" height="112" viewBox="0 0 113 112" fill="none" xmlns="http://www.w3.org/2000/svg">
<rect y="84" width="28" height="28" fill="#C43300"/>
<rect y="55" width="28" height="29" fill="#FFAB8F"/>
<rect width="28" height="28" fill="#E8E8ED"/>
<rect x="28" y="84" width="28" height="28" fill="#E8E8ED"/>
<rect x="56" y="55" width="29" height="29" fill="#DD420A"/>
<rect x="85" y="84" width="28" height="28" fill="#FF703E"/>
<rect x="28" y="55" width="28" height="29" fill="#F85115"/>
<rect x="28" y="27" width="28" height="28" fill="#FF8A61"/>
</svg>
